<svg width="24" height="24" viewBox="0 0 24 24" fill="none" xmlns="http://www.w3.org/2000/svg">
<mask id="mask0_3045_6997" style="mask-type:alpha" maskUnits="userSpaceOnUse" x="0" y="0" width="24" height="24">
<rect width="24" height="24" fill="#D9D9D9"/>
</mask>
<g mask="url(#mask0_3045_6997)">
<path d="M11.9976 15.0377L6.34375 9.3839L7.39758 8.33008L11.9976 12.9301L16.5976 8.33008L17.6514 9.3839L11.9976 15.0377Z" fill="#1C1B1F"/>
</g>
</svg>
