<svg width="358" height="293" viewBox="0 0 358 293" fill="none" xmlns="http://www.w3.org/2000/svg">
<path d="M11.7246 134.668V137.706" stroke="#D2D8DF" stroke-width="2.921" stroke-linecap="round"/>
<path d="M4.9043 136.312L7.38697 138.868" stroke="#D2D8DF" stroke-width="2.921" stroke-linecap="round"/>
<path d="M2 143.113H5.51047" stroke="#D2D8DF" stroke-width="2.921" stroke-linecap="round"/>
<path d="M4.61914 150.04L7.10182 147.484" stroke="#D2D8DF" stroke-width="2.921" stroke-linecap="round"/>
<path d="M11.7246 150.874V147.836" stroke="#D2D8DF" stroke-width="2.921" stroke-linecap="round"/>
<path d="M16.7872 148.85L14.7617 146.824" stroke="#D2D8DF" stroke-width="2.921" stroke-linecap="round"/>
<path d="M20.839 143.785H17.8008" stroke="#D2D8DF" stroke-width="2.921" stroke-linecap="round"/>
<path d="M18.8126 136.695L16.7871 138.721" stroke="#D2D8DF" stroke-width="2.921" stroke-linecap="round"/>
<path d="M174.775 2V4.02549" stroke="#D2D8DF" stroke-width="2.921" stroke-linecap="round"/>
<path d="M168.699 8.07812H170.725" stroke="#D2D8DF" stroke-width="2.921" stroke-linecap="round"/>
<path d="M174.775 14.1544V12.1289" stroke="#D2D8DF" stroke-width="2.921" stroke-linecap="round"/>
<path d="M179.84 8.07812H177.814" stroke="#D2D8DF" stroke-width="2.921" stroke-linecap="round"/>
<path d="M57.2969 87.0703V90.1086" stroke="#D2D8DF" stroke-width="2.921" stroke-linecap="round"/>
<path d="M48.1836 96.1836H51.2218" stroke="#D2D8DF" stroke-width="2.921" stroke-linecap="round"/>
<path d="M57.2969 104.288V101.25" stroke="#D2D8DF" stroke-width="2.921" stroke-linecap="round"/>
<path d="M65.3996 96.1836H62.3613" stroke="#D2D8DF" stroke-width="2.921" stroke-linecap="round"/>
<path d="M275.301 197.5C277.721 197.5 279.684 199.463 279.684 201.884C279.684 204.306 277.721 206.269 275.301 206.269C272.881 206.269 270.918 204.306 270.918 201.884" stroke="#D2D8DF" stroke-width="2.921" stroke-linecap="round"/>
<path fill-rule="evenodd" clip-rule="evenodd" d="M295.357 157.724C297.96 156.912 301.949 153.729 302.873 150.305C303.71 153.332 307.221 156.912 310.388 157.183C306.823 158.445 303.414 162.196 302.873 165.142C302.505 162.139 297.79 158.162 295.357 157.724" fill="#EBECEE"/>
<path fill-rule="evenodd" clip-rule="evenodd" d="M28.207 196.147C29.5087 195.741 31.5026 194.15 31.9643 192.438C32.383 193.95 34.1378 195.741 35.7215 195.877C33.9392 196.507 32.2351 198.383 31.9643 199.856C31.7803 198.354 29.4228 196.365 28.207 196.147" fill="#EBECEE"/>
<path fill-rule="evenodd" clip-rule="evenodd" d="M52.3638 55.2668C52.3638 57.145 50.842 58.6664 48.9651 58.6664C47.0874 58.6664 45.5664 57.145 45.5664 55.2668C45.5664 53.3894 47.0874 51.8672 48.9651 51.8672C50.842 51.8672 52.3638 53.3894 52.3638 55.2668" fill="#D1D8DF"/>
<path fill-rule="evenodd" clip-rule="evenodd" d="M279.313 64.393C279.313 67.5311 276.769 70.075 273.633 70.075C270.494 70.075 267.951 67.5311 267.951 64.393C267.951 61.2548 270.494 58.7109 273.633 58.7109C276.769 58.7109 279.313 61.2548 279.313 64.393" fill="#EBECEE"/>
<path fill-rule="evenodd" clip-rule="evenodd" d="M357.998 48.9995C357.998 51.4892 355.981 53.5067 353.492 53.5067C351.003 53.5067 348.986 51.4892 348.986 48.9995C348.986 46.5098 351.003 44.4922 353.492 44.4922C355.981 44.4922 357.998 46.5098 357.998 48.9995" fill="#EBECEE"/>
<path fill-rule="evenodd" clip-rule="evenodd" d="M115.88 259.509C115.88 261.079 114.608 262.351 113.039 262.351C111.471 262.351 110.199 261.079 110.199 259.509C110.199 257.94 111.471 256.668 113.039 256.668C114.608 256.668 115.88 257.94 115.88 259.509Z" stroke="#D2D8DF" stroke-width="2.921" stroke-linecap="round"/>
<path fill-rule="evenodd" clip-rule="evenodd" d="M114.188 33.4269C114.188 35.3052 112.666 36.8265 110.789 36.8265C108.912 36.8265 107.391 35.3052 107.391 33.4269C107.391 31.5496 108.912 30.0273 110.789 30.0273C112.666 30.0273 114.188 31.5496 114.188 33.4269Z" stroke="#D2D8DF" stroke-width="2.921" stroke-linecap="round"/>
<path fill-rule="evenodd" clip-rule="evenodd" d="M200.888 290.975C198.717 291.801 196.286 290.71 195.46 288.538C194.634 286.366 195.724 283.934 197.896 283.108C200.067 282.282 202.498 283.372 203.324 285.545C204.151 287.717 203.06 290.148 200.888 290.975Z" stroke="#D2D8DF" stroke-width="2.921" stroke-linecap="round"/>
<path fill-rule="evenodd" clip-rule="evenodd" d="M199.583 210.626H116.533C110.687 210.626 105.902 205.827 105.902 199.962V81.5289C105.902 75.6637 110.687 70.8672 116.533 70.8672H199.583C205.43 70.8672 210.215 75.6637 210.215 81.5289V199.962C210.215 205.827 205.43 210.626 199.583 210.626" fill="#46A0D8"/>
<path fill-rule="evenodd" clip-rule="evenodd" d="M192.495 215.689H109.445C103.599 215.689 98.8145 210.89 98.8145 205.025V86.5914C98.8145 80.7262 103.599 75.9297 109.445 75.9297H192.495C198.342 75.9297 203.127 80.7262 203.127 86.5914V205.025C203.127 210.89 198.342 215.689 192.495 215.689" fill="#46A0D8"/>
<path fill-rule="evenodd" clip-rule="evenodd" d="M185.598 219.688H102.377C96.5193 219.688 91.7246 214.909 91.7246 209.068V91.1253C91.7246 85.2845 96.5193 80.5078 102.377 80.5078H185.598C191.458 80.5078 196.253 85.2845 196.253 91.1253V209.068C196.253 214.909 191.458 219.688 185.598 219.688" fill="#D8DBEA"/>
<path fill-rule="evenodd" clip-rule="evenodd" d="M185.598 219.688H102.377C96.5193 219.688 91.7246 214.909 91.7246 209.068V91.1253C91.7246 85.2845 96.5193 80.5078 102.377 80.5078H185.598C191.458 80.5078 196.253 85.2845 196.253 91.1253V209.068C196.253 214.909 191.458 219.688 185.598 219.688" fill="#67C3FF"/>
<path opacity="0.6" fill-rule="evenodd" clip-rule="evenodd" d="M173.603 116.44H112.134C110.378 116.44 108.941 115.073 108.941 113.403C108.941 111.73 110.378 110.363 112.134 110.363H173.603C175.358 110.363 176.795 111.73 176.795 113.403C176.795 115.073 175.358 116.44 173.603 116.44" fill="white"/>
<path opacity="0.6" fill-rule="evenodd" clip-rule="evenodd" d="M173.603 134.67H112.134C110.378 134.67 108.941 133.303 108.941 131.633C108.941 129.961 110.378 128.594 112.134 128.594H173.603C175.358 128.594 176.795 129.961 176.795 131.633C176.795 133.303 175.358 134.67 173.603 134.67" fill="white"/>
<path opacity="0.6" fill-rule="evenodd" clip-rule="evenodd" d="M173.603 152.901H112.134C110.378 152.901 108.941 151.534 108.941 149.864C108.941 148.194 110.378 146.824 112.134 146.824H173.603C175.358 146.824 176.795 148.194 176.795 149.864C176.795 151.534 175.358 152.901 173.603 152.901" fill="white"/>
<path opacity="0.6" fill-rule="evenodd" clip-rule="evenodd" d="M173.603 171.127H112.134C110.378 171.127 108.941 169.76 108.941 168.09C108.941 166.418 110.378 165.051 112.134 165.051H173.603C175.358 165.051 176.795 166.418 176.795 168.09C176.795 169.76 175.358 171.127 173.603 171.127" fill="white"/>
<path opacity="0.6" fill-rule="evenodd" clip-rule="evenodd" d="M144.22 189.358H112.147C110.384 189.358 108.941 187.991 108.941 186.321C108.941 184.648 110.384 183.281 112.147 183.281H144.22C145.983 183.281 147.426 184.648 147.426 186.321C147.426 187.991 145.983 189.358 144.22 189.358" fill="white"/>
<path fill-rule="evenodd" clip-rule="evenodd" d="M208.958 165.799C196.667 178.088 177.638 179.475 163.823 169.986C162.058 168.752 160.377 167.366 158.81 165.799C158.004 164.995 157.243 164.165 156.527 163.292C155.094 161.547 153.839 159.687 152.81 157.764C150.998 154.517 149.767 151.072 149.094 147.511C146.924 136.342 150.169 124.321 158.81 115.683C167.473 107.02 179.496 103.796 190.667 105.945C194.226 106.638 197.674 107.87 200.922 109.661C202.847 110.712 204.682 111.967 206.43 113.4C207.301 114.114 208.131 114.877 208.935 115.683C210.504 117.25 211.912 118.927 213.123 120.695C222.615 134.505 221.226 153.533 208.958 165.799" fill="white" fill-opacity="0.1"/>
<path fill-rule="evenodd" clip-rule="evenodd" d="M205.513 163.378C192.726 176.168 172.002 176.165 159.212 163.378C146.439 150.605 146.439 129.879 159.229 117.092C172.002 104.318 192.726 104.318 205.499 117.092C218.286 129.879 218.286 150.605 205.513 163.378ZM212.08 110.521C195.666 94.1075 169.068 94.1075 152.654 110.521C136.242 126.933 136.228 153.548 152.639 169.962C167.578 184.896 190.992 186.242 207.461 173.981C209.07 172.781 210.619 171.437 212.096 169.962C213.572 168.484 214.916 166.935 216.113 165.326C228.375 148.855 227.016 125.458 212.08 110.521" fill="white"/>
<path fill-rule="evenodd" clip-rule="evenodd" d="M276.678 231.833L275.989 232.522C271.43 237.083 263.964 237.083 259.403 232.522L217.309 190.427L234.583 173.152L276.678 215.247C281.239 219.808 281.239 227.271 276.678 231.833" fill="#4BADED"/>
<path fill-rule="evenodd" clip-rule="evenodd" d="M217.022 164.039L229.461 176.478L220.63 185.307L208.193 172.868C209.835 171.644 211.413 170.272 212.923 168.767C214.429 167.261 215.801 165.68 217.022 164.039" fill="white"/>
<path d="M217.022 164.039L229.461 176.478L220.63 185.307L208.193 172.868C209.835 171.644 211.413 170.272 212.923 168.767C214.429 167.261 215.801 165.68 217.022 164.039" stroke="#EFEFEF"/>
<path fill-rule="evenodd" clip-rule="evenodd" d="M276.048 214.729L258.883 231.892L255.793 228.799L272.955 211.637L276.048 214.729Z" fill="#46A0D8"/>
<path fill-rule="evenodd" clip-rule="evenodd" d="M235.536 173.749L217.901 191.384L215.281 188.764L232.916 171.129L235.536 173.749Z" fill="#46A0D8"/>
</svg>
