<svg width="550" height="396" viewBox="0 0 550 396" fill="none" xmlns="http://www.w3.org/2000/svg">
<g clip-path="url(#clip0_697_4755)">
<path d="M301.401 238.488C313.61 226.258 313.61 206.43 301.401 194.2C289.191 181.97 269.395 181.97 257.186 194.2C244.976 206.43 244.976 226.258 257.186 238.488C269.395 250.717 289.191 250.717 301.401 238.488Z" fill="#2B244A"/>
<path d="M258.483 203.028C267.977 195.549 282.534 195.189 291.814 203.339C300.387 210.877 302.84 223.766 298.234 234.082C297.691 235.287 299.475 236.345 300.018 235.131C305.197 223.543 302.355 209.002 292.202 200.988C281.961 192.907 267.066 193.664 257.029 201.571C255.972 202.387 257.446 203.844 258.483 203.028Z" fill="#656D85"/>
<path d="M212.849 209.723C212.849 209.723 200.921 207.654 178.5 206.857C156.079 206.061 142.085 215.969 129.207 226.547C116.328 237.125 86.4306 263.885 68.4609 281.885L72.9703 282.39L85.2184 392.813H349.614C349.614 392.813 361.794 368.626 357.13 344.42C352.465 320.204 339.121 261.166 332.604 249.063C326.088 236.96 318.029 232.705 305.839 228.033C293.63 223.361 212.849 209.723 212.849 209.723Z" fill="#4BADED"/>
<path d="M126.601 314.261C139.188 303.324 151.233 291.804 162.724 279.71C163.645 278.749 162.181 277.282 161.26 278.244C149.768 290.337 137.724 301.857 125.136 312.794C124.128 313.669 125.592 315.126 126.601 314.261Z" fill="#2B244A"/>
<path d="M342.088 278.563C330.422 280.477 319.018 284.052 308.098 288.588C306.867 289.093 306.333 287.102 307.536 286.587C318.475 282.051 329.869 278.505 341.555 276.562C341.739 277.233 341.914 277.893 342.088 278.563Z" fill="#2B244A"/>
<path d="M71.4496 268.423C97.9919 269.093 123.487 279.263 143.192 297.087C144.182 297.981 145.646 296.514 144.657 295.62C124.534 277.427 98.5544 267.024 71.4496 266.344C70.121 266.324 70.121 268.393 71.4496 268.423Z" fill="#2B244A"/>
<path d="M220.489 287.869C224.281 273.502 228.519 259.272 233.222 245.178C233.649 243.915 231.651 243.371 231.225 244.624C226.521 258.719 222.284 272.949 218.492 287.315C218.152 288.607 220.15 289.151 220.489 287.869Z" fill="#2B244A"/>
<path d="M229.161 287.869C232.953 273.502 237.191 259.272 241.894 245.178C242.321 243.915 240.323 243.371 239.897 244.624C235.193 258.719 230.955 272.949 227.164 287.315C226.824 288.607 228.822 289.151 229.161 287.869Z" fill="#2B244A"/>
<path d="M198.93 235.305C203.944 223.999 209.142 212.78 214.514 201.638C215.086 200.444 213.312 199.394 212.73 200.589C207.357 211.731 202.159 222.95 197.146 234.256C196.612 235.47 198.387 236.529 198.93 235.305Z" fill="#2B244A"/>
<path d="M198.04 235.822C207.185 235.21 216.329 234.52 225.465 233.772C226.783 233.665 226.793 231.596 225.465 231.703C216.329 232.451 207.185 233.141 198.04 233.753C196.721 233.84 196.711 235.909 198.04 235.822Z" fill="#2B244A"/>
<path d="M217.465 293.424C220.364 293.424 223.264 293.424 226.154 293.424C227.482 293.424 227.482 291.355 226.154 291.355C223.254 291.355 220.355 291.355 217.465 291.355C216.126 291.355 216.126 293.424 217.465 293.424Z" fill="#2B244A"/>
<path d="M219.489 288.624C222.388 288.624 225.288 288.624 228.178 288.624C229.506 288.624 229.506 286.555 228.178 286.555C225.278 286.555 222.379 286.555 219.489 286.555C218.16 286.555 218.16 288.624 219.489 288.624Z" fill="#2B244A"/>
<path d="M272.631 196.434C278.169 194.9 281.049 197.93 281.863 202.437C283.008 208.722 285.471 229.237 285.471 229.237L262.672 211.578L272.631 196.434Z" fill="white"/>
<path d="M277.708 196.455C277.087 196.212 276.399 196.076 275.623 196.047C275.691 197.242 275.691 198.33 275.613 199.252C275.022 206.003 269.388 210.394 264.219 212.764L266.071 214.192C271.666 211.394 277.068 206.489 277.679 199.437C277.747 198.563 277.757 197.552 277.708 196.455Z" fill="#C46031"/>
<path d="M258.011 214.764C263.315 213.88 274.758 209.033 275.612 199.262C276.456 189.49 268.513 164.108 264.479 156.464C260.454 148.819 250.592 135.23 230.13 141.389C210.376 147.333 206.487 166.663 210.095 179.932C213.702 193.21 222.178 206.479 233.418 211.899C244.657 217.309 254.199 215.396 258.011 214.764Z" fill="white"/>
<path d="M214.857 131.364C218.212 139.795 224.661 145.137 229.248 143.311C233.845 141.475 234.844 133.151 231.488 124.719C228.133 116.288 221.684 110.946 217.097 112.772C212.51 114.608 211.502 122.932 214.857 131.364Z" fill="#2B244A"/>
<path d="M222.375 193.148L212.852 209.71C212.852 209.71 213.647 236.15 241.634 254.625C269.621 273.1 272.482 237.267 272.482 237.267L259.129 210.351L222.375 193.148Z" fill="white"/>
<path d="M214.287 307.195C214.287 307.195 234.643 308.944 239.094 309.74C243.545 310.537 245.931 324.553 228.436 326.146C210.942 327.739 214.287 307.195 214.287 307.195Z" fill="white"/>
<path d="M132.242 309.266C132.317 309.76 132.317 309.76 132.317 309.76L132.318 309.76L132.324 309.759L132.344 309.756L132.427 309.744L132.749 309.695C133.032 309.653 133.449 309.59 133.985 309.51C135.058 309.35 136.608 309.119 138.514 308.836C142.327 308.271 147.569 307.499 153.283 306.672C164.712 305.018 178.023 303.147 185.569 302.273C200.624 300.531 208.233 302.456 213.961 307.57C216.862 310.16 222.557 317.108 228.09 324.306C233.614 331.492 238.927 338.863 241.062 342.266C243.19 345.665 244.45 348.437 245.01 350.967C245.567 353.486 245.436 355.791 244.738 358.271C244.054 360.702 242.632 362.395 241.372 363.486C240.742 364.031 240.156 364.423 239.73 364.677C239.516 364.804 239.344 364.896 239.226 364.956C239.167 364.986 239.122 365.008 239.093 365.022L239.061 365.036L239.055 365.039L239.054 365.04L239.054 365.04L239.054 365.04L239.054 365.04L238.683 365.203L238.766 365.599C239.546 369.346 239.208 373.397 235.925 375.932C233.971 377.435 231.426 377.941 229.32 378.058C228.275 378.116 227.354 378.077 226.696 378.023C226.367 377.997 226.104 377.966 225.925 377.943C225.835 377.931 225.767 377.921 225.721 377.914L225.671 377.906L225.659 377.904L225.657 377.904L225.656 377.904L132.242 309.266ZM132.242 309.266L132.317 309.76L131.968 309.813L131.801 309.502L131.801 309.502L131.801 309.501L131.8 309.5L131.795 309.491C131.79 309.482 131.783 309.468 131.772 309.448C131.75 309.41 131.716 309.35 131.669 309.272C131.574 309.115 131.428 308.881 131.225 308.58C130.817 307.977 130.179 307.104 129.265 306.039C127.436 303.91 124.501 301.011 120.091 297.964C111.302 291.892 96.6357 285.221 73.1581 282.9C73.0968 282.962 73.0191 283.04 72.9255 283.135C72.6637 283.401 72.2779 283.794 71.7827 284.302C70.7923 285.319 69.3644 286.799 67.6152 288.648C64.1166 292.346 59.3339 297.521 54.1975 303.429C43.913 315.26 32.2515 329.982 26.6104 341.664C20.4598 354.405 20.0113 367.382 24.8203 377.384C29.6203 387.366 39.7001 394.474 54.8091 395.421C62.3712 395.895 74.826 394.278 89.304 391.563C103.765 388.851 120.192 385.055 135.671 381.199C151.149 377.342 165.674 373.425 176.33 370.473C181.657 368.996 186.018 367.761 189.046 366.895C190.56 366.462 191.741 366.121 192.543 365.889C192.944 365.773 193.251 365.683 193.457 365.623L193.69 365.555L193.749 365.538L193.764 365.534L193.768 365.533C193.768 365.532 193.769 365.532 193.909 366.012M132.242 309.266L225.109 378.209M225.109 378.209L225.109 378.209L225.109 378.209ZM225.109 378.209L225.106 378.216C225.102 378.224 225.096 378.238 225.088 378.256C225.071 378.293 225.043 378.351 225.004 378.425C224.926 378.574 224.801 378.791 224.621 379.049C224.261 379.567 223.682 380.25 222.812 380.895C221.085 382.175 218.157 383.344 213.393 382.681C211.823 382.462 209.844 381.344 207.712 379.697C205.599 378.064 203.405 375.968 201.414 373.891C199.424 371.816 197.646 369.768 196.365 368.239C195.724 367.475 195.209 366.84 194.853 366.398C194.675 366.176 194.538 366.003 194.445 365.885C194.42 365.853 194.398 365.825 194.379 365.801L194.34 365.751L194.313 365.717L194.306 365.708L194.305 365.706L194.305 365.706C194.304 365.706 194.304 365.706 193.909 366.012M193.909 366.012L194.304 365.706L194.096 365.437L193.769 365.532L193.909 366.012Z" fill="white" stroke="#EDEDED"/>
<path d="M283.623 381.151L247.99 275.341L247.968 275.273L247.927 275.215L247.516 275.5C247.927 275.215 247.927 275.215 247.927 275.215L247.926 275.213L247.923 275.209L247.91 275.191L247.86 275.118L247.663 274.834C247.49 274.585 247.237 274.22 246.914 273.753C246.269 272.819 245.346 271.481 244.235 269.863C242.012 266.627 239.038 262.272 236.031 257.794C233.024 253.316 229.986 248.718 227.635 244.995C226.459 243.133 225.457 241.494 224.718 240.201C224.348 239.554 224.046 238.998 223.822 238.546C223.593 238.085 223.458 237.76 223.406 237.566L223.406 237.565C222.892 235.657 222.548 232.518 223.358 229.781C223.761 228.421 224.442 227.179 225.512 226.228C226.579 225.279 228.063 224.592 230.119 224.39L230.748 224.328L230.544 223.731L230.544 223.731L230.544 223.731L230.544 223.731L230.543 223.729L230.539 223.718L230.525 223.673C230.512 223.632 230.493 223.571 230.469 223.49C230.421 223.33 230.356 223.094 230.286 222.8C230.145 222.212 229.986 221.394 229.913 220.476C229.765 218.618 229.975 216.46 231.259 214.917C233.858 211.81 238.051 211.452 240.02 211.721L240.685 211.813L240.582 211.15L240.582 211.15L240.582 211.149L240.582 211.149L240.582 211.147L240.58 211.135C240.579 211.124 240.576 211.107 240.573 211.084C240.567 211.037 240.558 210.967 240.549 210.876C240.529 210.693 240.506 210.427 240.492 210.098C240.463 209.438 240.47 208.532 240.611 207.543C240.894 205.553 241.704 203.321 243.75 202.022C248.024 199.308 252.505 200.283 254.474 201.97C254.785 202.236 255.507 202.821 256.533 203.653C257.297 204.271 258.228 205.026 259.283 205.886C261.764 207.909 264.944 210.532 268.28 213.391C274.966 219.119 282.232 225.755 285.773 230.402C287.536 232.715 291.312 239.177 296.008 247.62C300.695 256.046 306.273 266.401 311.63 276.465C316.986 286.529 322.118 296.299 325.912 303.553C327.808 307.181 329.37 310.179 330.458 312.27C331.002 313.316 331.427 314.135 331.717 314.692L332.016 315.27L283.623 381.151Z" fill="white" stroke="#EDEDED"/>
<path d="M265.021 157.541C259.173 157.648 255.992 156.57 255.992 156.57C253.345 173.665 231.613 178.872 231.613 178.872C231.613 178.872 222.875 184.904 213.507 189.382C212.111 186.303 210.966 183.117 210.094 179.94C206.486 166.672 210.385 147.342 230.129 141.397C250.591 135.239 260.453 148.818 264.488 156.473C264.662 156.793 264.837 157.162 265.021 157.541Z" fill="#2B244A"/>
<path d="M225.148 194.055C225.148 194.055 228.765 204.75 218.544 210.695C214.966 210.073 212.861 209.723 212.861 209.723C212.861 209.723 200.933 207.654 178.512 206.858C156.082 206.061 142.098 215.969 129.21 226.537C116.884 236.659 88.9936 261.593 70.8591 279.495C65.7776 269.442 66.5146 256.999 74.8254 245.663C96.7614 215.755 151.514 211.87 151.514 211.87C164.092 170.49 205.171 176.144 205.171 176.144C205.171 176.144 204.434 165.177 211.184 155.25C218.66 144.254 230.133 141.398 230.133 141.398C230.133 141.398 231.713 157.639 232.673 178.591L225.148 194.055Z" fill="#2B244A"/>
<path d="M135.953 221.223C134.876 222.009 133.819 222.816 132.791 223.632L132.782 223.641C120.737 225.157 108.887 229.042 99.7711 237.347C92.8858 243.632 86.1363 254.423 86.6017 264.399C85.9617 265.001 85.3313 265.594 84.701 266.186C83.5082 256.143 89.4237 244.982 96.0569 238.076C106.55 227.167 121.242 222.583 135.953 221.223Z" fill="#656D85"/>
<path d="M224.547 180.273C225.129 180.671 225.73 181.05 226.36 181.39C236.562 170.006 241.382 154.95 239.821 139.836C239.142 139.836 238.444 139.865 237.745 139.933C239.316 154.659 234.574 169.229 224.547 180.273Z" fill="#656D85"/>
<path d="M246.334 171.75C245.141 172.654 243.939 173.46 242.727 174.169C248.565 164.407 249.903 152.945 249.302 141.57C250.039 141.871 250.737 142.192 251.406 142.551C251.823 152.683 250.65 162.765 246.334 171.75Z" fill="#656D85"/>
<path d="M225.766 198.552C212.228 195.696 196.78 197.91 187.325 207.255C186.442 207.206 185.54 207.158 184.609 207.109C194.288 196.337 210.938 193.471 225.63 196.415C225.708 197.036 225.766 197.765 225.766 198.552Z" fill="#656D85"/>
<path d="M229.066 186.004L228.145 187.898C214.374 184.858 200.196 183.508 187.075 190.064C178.939 194.125 171.908 200.234 166.468 207.519C165.489 207.665 164.528 207.83 163.578 208.025C169.348 199.739 177 192.784 186.038 188.267C199.808 181.4 214.636 182.779 229.066 186.004Z" fill="#656D85"/>
<path d="M220.559 190.576C223.333 194.617 228.851 195.637 232.875 192.859C236.909 190.081 237.928 184.554 235.154 180.523C232.381 176.482 226.863 175.462 222.838 178.24C218.814 181.008 217.786 186.535 220.559 190.576Z" fill="white"/>
<path d="M228.605 182.155C225.163 182.622 224.086 186.507 226.724 188.731C227.733 189.586 226.21 190.985 225.201 190.14C221.419 186.934 223.252 180.805 228.14 180.145C229.449 179.96 229.924 181.971 228.605 182.155Z" fill="#C46031"/>
<path d="M261.151 192.102C258.154 191.83 255.293 191.082 252.539 189.868C251.317 189.334 252.2 187.459 253.422 187.993C256.011 189.13 258.687 189.81 261.5 190.062C262.828 190.179 262.469 192.219 261.151 192.102Z" fill="#C46031"/>
<path d="M262.752 173.403C264.081 175.083 265.419 176.764 266.748 178.454C267.708 179.678 268.852 180.941 269.085 182.543C269.511 185.477 267.058 186.963 264.488 186.128C263.227 185.72 263.732 183.709 265.002 184.117C266.175 184.496 267.174 184.311 267.009 182.796C266.883 181.718 265.923 180.727 265.283 179.911C263.955 178.221 262.616 176.55 261.288 174.86C260.473 173.83 261.918 172.354 262.752 173.403Z" fill="#C46031"/>
<path d="M256.159 167.682C257.342 167.828 257.866 169.391 257.429 170.499C256.993 171.606 255.955 172.335 255.005 173.044C254.045 173.743 253.124 174.714 252.561 175.773C251.979 176.861 251.834 177.59 251.427 178.328C250.874 179.328 249.739 179.571 248.818 178.891C247.897 178.211 247.974 176.667 248.12 175.53C248.265 174.394 248.837 173.005 249.739 171.645C250.602 170.353 254.035 166.846 256.159 167.682Z" fill="#2B244A"/>
<path d="M269.712 169.917C268.723 169.383 267.511 169.092 266.395 169.004C265.212 168.907 263.942 168.839 262.992 168.13C262.032 167.431 261.653 165.809 262.575 165.07C263.476 163.856 265.862 163.944 267.782 164.332C268.432 166.061 269.072 167.945 269.712 169.917Z" fill="#2B244A"/>
<path d="M253.848 180.231C254.498 182.252 255.865 183.378 256.98 183.019C258.096 182.66 258.532 180.95 257.882 178.93C257.232 176.909 255.875 175.85 254.76 176.21C253.644 176.56 253.198 178.211 253.848 180.231Z" fill="#2B244A"/>
<path d="M266.098 175.501C266.748 177.521 268.115 178.648 269.23 178.289C270.346 177.929 270.782 176.22 270.132 174.199C269.482 172.179 268.125 171.12 267.01 171.479C265.894 171.829 265.448 173.48 266.098 175.501Z" fill="#2B244A"/>
<path d="M258.04 201.573C257.09 200.806 256.421 200.272 256.13 200.019C254.452 198.582 251.999 197.766 249.38 197.766C246.956 197.766 244.522 198.494 242.359 199.854C238.694 202.195 237.966 206.43 237.908 209.121C235.736 209.266 231.983 210.034 229.287 213.268C226.979 216.027 227.134 219.854 227.551 222.263C225.35 222.914 223.575 224.167 222.343 225.964C221.034 227.858 220.452 230.199 220.336 232.491C221.015 233.667 221.771 234.871 222.576 236.085C221.897 231.724 222.508 224.643 230.063 223.895C230.063 223.895 228.046 217.979 230.868 214.599C233.156 211.87 236.579 211.151 238.858 211.151C239.324 211.151 239.741 211.18 240.08 211.238C240.08 211.238 239.023 204.439 243.484 201.612C245.482 200.34 247.538 199.844 249.39 199.844C251.65 199.844 253.618 200.602 254.792 201.602C255.732 202.409 265.43 210.432 271.433 215.493C271.811 215.813 272.373 215.833 272.761 215.522C272.771 215.512 272.771 215.512 272.781 215.502C273.304 215.085 273.324 214.288 272.81 213.861C268.271 210.024 260.271 203.38 258.04 201.573Z" fill="#C46031"/>
<path d="M263.41 232.753C255.39 224.856 247.118 217.153 238.681 209.703C237.682 208.829 236.218 210.286 237.217 211.17C245.654 218.62 253.926 226.323 261.946 234.22C262.896 235.152 264.361 233.695 263.41 232.753Z" fill="#C46031"/>
<path d="M253.135 244.944C245.561 237.484 237.754 230.208 229.783 223.176C228.784 222.301 227.32 223.759 228.318 224.642C236.29 231.675 244.097 238.95 251.67 246.41C252.621 247.343 254.085 245.876 253.135 244.944Z" fill="#C46031"/>
<path d="M193.801 366.04C193.539 366.127 192.812 366.331 191.667 366.662H191.658C188.952 363.213 186.305 359.707 183.745 356.132C182.969 355.044 184.772 354.015 185.529 355.083C188.205 358.813 190.96 362.456 193.801 366.04Z" fill="#C46031"/>
<path d="M228.383 378.593C226.929 378.603 225.852 378.447 225.61 378.418C218.182 369.083 210.743 359.739 203.315 350.404C202.491 349.365 203.945 347.898 204.77 348.947C212.644 358.826 220.519 368.705 228.383 378.593Z" fill="#C46031"/>
<path d="M239.258 365.496C239.258 365.506 239.258 365.516 239.268 365.525L217.749 338.502C216.934 337.463 218.379 335.996 219.213 337.036C226.467 346.157 233.74 355.287 241.004 364.408C240.024 365.166 239.258 365.496 239.258 365.496Z" fill="#C46031"/>
<path d="M232.272 325.546C231.555 325.711 230.808 325.857 229.993 325.973C226.783 321.952 223.409 318.066 219.908 314.298C219.006 313.326 220.47 311.85 221.372 312.831C225.183 316.92 228.82 321.165 232.272 325.546Z" fill="#C46031"/>
<path d="M132.234 309.259C120.286 311.26 108.329 313.184 96.3428 315.029C95.0433 315.233 94.4809 313.242 95.7997 313.038C107.534 311.222 119.268 309.337 130.973 307.375C131.788 308.473 132.166 309.162 132.234 309.259Z" fill="#C46031"/>
<path d="M287.362 231.839C285.074 236.337 282.804 240.834 280.516 245.341C279.915 246.526 278.13 245.477 278.731 244.292C281.156 239.494 283.59 234.705 286.005 229.926C286.053 229.984 286.102 230.052 286.15 230.11C286.49 230.547 286.887 231.121 287.362 231.839Z" fill="#C46031"/>
<path d="M413.637 392.812H256.312L342.505 271.685C344.832 268.411 348.595 266.469 352.61 266.469H491.509C496.551 266.469 499.49 272.171 496.561 276.289L413.637 392.812Z" fill="#2B244A"/>
<path d="M277.42 382.361C300.229 350.209 323.047 318.058 345.856 285.906C346.632 284.818 344.838 283.779 344.072 284.857C321.263 317.009 298.445 349.16 275.636 381.312C274.86 382.4 276.654 383.439 277.42 382.361Z" fill="#656D85"/>
<path d="M184.403 385.828H299.679V392.812H177.867V392.385C177.867 388.762 180.786 385.828 184.403 385.828Z" fill="#2B244A"/>
<path d="M403.767 335.474C413.512 328.148 418.071 317.749 413.949 312.249C409.827 306.748 398.586 308.228 388.841 315.555C379.095 322.881 374.537 333.279 378.658 338.78C382.78 344.281 394.022 342.8 403.767 335.474Z" fill="#656D85"/>
<path d="M375.463 2.06898C377.034 2.06898 378.411 2.6615 379.323 3.72998C380.263 4.82761 380.642 6.3332 380.38 7.95536L366.638 95.1923C366.076 98.7377 362.633 101.729 359.103 101.729H248.308C246.737 101.729 245.36 101.137 244.448 100.068C243.508 98.9709 243.129 97.4653 243.391 95.8431L257.142 8.61588C257.705 5.07045 261.148 2.07869 264.678 2.07869H375.463V2.06898ZM375.463 0H264.668C260.1 0 255.814 3.71056 255.096 8.28562L241.345 95.5129C240.627 100.088 243.74 103.798 248.308 103.798H359.103C363.671 103.798 367.957 100.088 368.675 95.5129L382.426 8.28562C383.153 3.71056 380.031 0 375.463 0Z" fill="#E4E6EB"/>
<path d="M381.089 16.7849H253.75L255.088 8.28562C255.806 3.71056 260.092 0 264.66 0H375.455C380.023 0 383.136 3.71056 382.418 8.28562L381.089 16.7849Z" fill="#4BADED"/>
<path d="M271.233 8.39421C270.971 10.0358 269.439 11.3665 267.79 11.3665C266.142 11.3665 265.026 10.0358 265.288 8.39421C265.55 6.75262 267.082 5.42188 268.731 5.42188C270.37 5.42188 271.495 6.75262 271.233 8.39421Z" fill="white"/>
<path d="M285.615 8.39421C285.353 10.0358 283.821 11.3665 282.173 11.3665C280.534 11.3665 279.409 10.0358 279.671 8.39421C279.932 6.75262 281.465 5.42188 283.113 5.42188C284.752 5.42188 285.867 6.75262 285.615 8.39421Z" fill="white"/>
<path d="M263.36 39.3802C277.402 39.3802 291.453 39.3802 305.496 39.3802C308.153 39.3802 308.162 35.2422 305.496 35.2422C291.453 35.2422 277.402 35.2422 263.36 35.2422C260.693 35.2325 260.693 39.3802 263.36 39.3802Z" fill="#E4E6EB"/>
<path d="M261.961 48.2473C268.284 48.2473 274.607 48.2473 280.93 48.2473C283.587 48.2473 283.596 44.1094 280.93 44.1094C274.607 44.1094 268.284 44.1094 261.961 44.1094C259.294 44.0997 259.294 48.2473 261.961 48.2473Z" fill="#E4E6EB"/>
<path d="M257.075 78.1627C260.944 78.1627 264.813 78.1627 268.683 78.1627C270.011 78.1627 270.011 76.0938 268.683 76.0938C264.813 76.0938 260.944 76.0938 257.075 76.0938C255.746 76.0938 255.746 78.1627 257.075 78.1627Z" fill="#E4E6EB"/>
<path d="M268.938 78.3006C277.133 75.2214 285.337 72.1423 293.531 69.0631C294.763 68.5968 294.229 66.5959 292.978 67.0621C284.784 70.1413 276.58 73.2205 268.385 76.2996C267.154 76.7659 267.687 78.7669 268.938 78.3006Z" fill="#E4E6EB"/>
<path d="M292.959 69.0614C300.513 70.3727 308.058 71.6743 315.613 72.9857C316.912 73.2091 317.475 71.2178 316.165 70.9847C308.611 69.6734 301.066 68.3717 293.512 67.0604C292.203 66.837 291.65 68.8283 292.959 69.0614Z" fill="#E4E6EB"/>
<path d="M316.59 72.7114C323.601 66.3004 330.613 59.8992 337.624 53.4883C338.613 52.585 337.139 51.128 336.16 52.0216C329.149 58.4325 322.137 64.8337 315.126 71.2446C314.137 72.148 315.601 73.605 316.59 72.7114Z" fill="#E4E6EB"/>
<path d="M337.411 53.6452C345.906 49.2547 354.411 44.8739 362.906 40.4834C364.089 39.8714 363.042 38.0842 361.858 38.6961C353.363 43.0866 344.859 47.4674 336.363 51.8579C335.18 52.4699 336.228 54.2571 337.411 53.6452Z" fill="#E4E6EB"/>
<path d="M271.39 77.1241C271.157 78.62 269.751 79.8342 268.257 79.8342C266.764 79.8342 265.746 78.62 265.978 77.1241C266.211 75.6283 267.617 74.4141 269.111 74.4141C270.604 74.4141 271.632 75.6283 271.39 77.1241Z" fill="#656D85"/>
<path d="M295.96 68.0616C295.727 69.5575 294.321 70.7717 292.828 70.7717C291.334 70.7717 290.316 69.5575 290.549 68.0616C290.781 66.5658 292.188 65.3516 293.681 65.3516C295.175 65.3516 296.193 66.5658 295.96 68.0616Z" fill="#656D85"/>
<path d="M318.546 72.0226C318.313 73.5184 316.907 74.7326 315.414 74.7326C313.92 74.7326 312.902 73.5184 313.135 72.0226C313.367 70.5267 314.774 69.3125 316.267 69.3125C317.76 69.3125 318.788 70.5267 318.546 72.0226Z" fill="#656D85"/>
<path d="M339.593 52.753C339.36 54.2489 337.954 55.4631 336.461 55.4631C334.967 55.4631 333.949 54.2489 334.182 52.753C334.414 51.2572 335.82 50.043 337.314 50.043C338.807 50.0527 339.826 51.2572 339.593 52.753Z" fill="#656D85"/>
<path d="M365.085 39.6007C364.852 41.0966 363.446 42.3108 361.953 42.3108C360.459 42.3108 359.441 41.0966 359.674 39.6007C359.906 38.1048 361.313 36.8906 362.806 36.8906C364.299 36.8906 365.318 38.1048 365.085 39.6007Z" fill="#656D85"/>
<path d="M178.023 120.089C179.594 120.089 180.971 120.681 181.883 121.75C182.823 122.847 183.202 124.353 182.94 125.975L166.657 229.288C166.095 232.833 162.652 235.825 159.122 235.825H7.07357C5.50256 235.825 4.1255 235.232 3.21392 234.164C2.27325 233.066 1.89505 231.561 2.15688 229.938L18.4392 126.626C19.0016 123.08 22.4443 120.089 25.9742 120.089H178.023ZM178.023 118.02H25.9645C21.3969 118.02 17.1106 121.73 16.393 126.305L0.110686 229.608C-0.606937 234.183 2.506 237.894 7.07357 237.894H159.132C163.7 237.894 167.986 234.183 168.704 229.608L184.986 126.295C185.713 121.73 182.591 118.02 178.023 118.02Z" fill="#E4E6EB"/>
<path d="M183.648 134.804H15.0547L16.393 126.305C17.1106 121.73 21.3969 118.02 25.9645 118.02H178.023C182.591 118.02 185.704 121.73 184.986 126.305L183.648 134.804Z" fill="#656D85"/>
<path d="M33.8421 126.179C33.5803 127.821 32.0481 129.152 30.3995 129.152C28.7509 129.152 27.6356 127.821 27.8975 126.179C28.1593 124.538 29.6915 123.207 31.3401 123.207C32.979 123.197 34.1039 124.528 33.8421 126.179Z" fill="white"/>
<path d="M48.2171 126.179C47.9553 127.821 46.423 129.152 44.7745 129.152C43.1259 129.152 42.0106 127.821 42.2725 126.179C42.5343 124.538 44.0665 123.207 45.7151 123.207C47.3637 123.207 48.4789 124.528 48.2171 126.179Z" fill="white"/>
<path d="M138.205 209.377C147.575 200.704 149.173 187.174 141.776 179.157C134.379 171.139 120.787 171.671 111.418 180.343C102.048 189.016 100.45 202.546 107.847 210.564C115.244 218.581 128.836 218.05 138.205 209.377Z" fill="#B2E151"/>
<path d="M124.816 194.862L103.54 201.856C103.113 199.602 103.094 197.242 103.472 194.862C105.324 183.128 116.486 173.473 128.191 173.473C130.519 173.473 132.768 173.851 134.853 174.599L124.816 194.862Z" fill="#E4E6EB"/>
<path d="M124.81 194.863L109.167 211.852C107.422 210.337 106.016 208.482 105.007 206.383C103.999 204.285 103.397 201.954 103.242 199.516L124.81 194.863Z" fill="#656D85"/>
<path d="M68.9937 209.382C78.3669 200.706 79.9686 187.173 72.5714 179.155C65.1741 171.138 51.579 171.672 42.2059 180.349C32.8328 189.025 31.231 202.558 38.6283 210.575C46.0255 218.593 59.6206 218.059 68.9937 209.382Z" fill="#B2E151"/>
<path d="M55.6016 194.865L68.383 175.855C70.2353 176.895 71.8548 178.245 73.1833 179.867C74.5216 181.489 75.5495 183.345 76.2284 185.384L55.6016 194.865Z" fill="#E4E6EB"/>
<path d="M55.5997 194.864L35.8359 189.356C39.7926 180.022 49.3253 173.484 58.9744 173.484C62.6789 173.484 66.1701 174.446 69.0987 176.282L55.5997 194.864Z" fill="#656D85"/>
<path d="M42.5944 151.9C72.7734 151.9 102.943 151.9 133.122 151.9C135.779 151.9 135.788 147.762 133.122 147.762C102.943 147.762 72.7734 147.762 42.5944 147.762C39.9373 147.752 39.9373 151.9 42.5944 151.9Z" fill="#E4E6EB"/>
<path d="M41.0554 161.669C52.6828 161.669 64.3102 161.669 75.9377 161.669C78.5948 161.669 78.6045 157.531 75.9377 157.531C64.3102 157.531 52.6828 157.531 41.0554 157.531C38.3982 157.522 38.3982 161.669 41.0554 161.669Z" fill="#E4E6EB"/>
<path d="M160.131 48.2467C165.28 48.2467 169.47 52.4429 169.47 57.6008C169.47 62.7586 165.28 66.9549 160.131 66.9549C154.982 66.9549 150.792 62.7586 150.792 57.6008C150.792 52.4429 154.982 48.2467 160.131 48.2467ZM160.131 46.168C153.828 46.168 148.727 51.287 148.727 57.591C148.727 63.9048 153.837 69.0141 160.131 69.0141C166.425 69.0141 171.535 63.8951 171.535 57.591C171.545 51.287 166.434 46.168 160.131 46.168Z" fill="#E4E6EB"/>
<path d="M537.698 241.456C542.828 240.961 547.396 244.739 547.89 249.868C548.385 255.006 544.612 259.581 539.482 260.077C534.352 260.572 529.785 256.794 529.29 251.655C528.795 246.536 532.568 241.951 537.698 241.456ZM537.494 239.397C531.22 239.999 526.623 245.584 527.234 251.869C527.835 258.153 533.412 262.758 539.686 262.146C545.96 261.543 550.557 255.958 549.946 249.674C549.345 243.399 543.769 238.794 537.494 239.397Z" fill="#E4E6EB"/>
<path d="M479.34 315.993C478.874 316.041 478.428 315.76 478.263 315.303C478.069 314.759 478.36 314.176 478.894 313.982C485.789 311.554 492.422 308.28 498.59 304.249C499.065 303.938 499.705 304.074 500.015 304.55C500.325 305.026 500.19 305.667 499.714 305.988C493.401 310.097 486.623 313.448 479.573 315.934C479.505 315.973 479.417 315.993 479.34 315.993Z" fill="#E4E6EB"/>
<path d="M506.005 301.315C505.666 301.344 505.316 301.208 505.093 300.926C504.744 300.48 504.822 299.829 505.268 299.469C509.157 296.419 512.842 293.01 516.236 289.328C516.624 288.911 517.274 288.882 517.7 289.27C518.117 289.659 518.146 290.31 517.758 290.737C514.296 294.496 510.524 297.983 506.548 301.101C506.383 301.228 506.199 301.296 506.005 301.315Z" fill="#E4E6EB"/>
<path d="M522.543 284.587C522.291 284.616 522.029 284.548 521.816 284.373C521.36 284.023 521.283 283.373 521.632 282.916C525.162 278.322 528.275 273.397 530.864 268.258C531.126 267.744 531.746 267.54 532.251 267.802C532.765 268.064 532.959 268.686 532.706 269.191C530.049 274.436 526.878 279.477 523.271 284.169C523.086 284.431 522.825 284.567 522.543 284.587Z" fill="#E4E6EB"/>
<path d="M542.016 234.069C541.958 234.078 541.9 234.078 541.842 234.069C541.269 234.03 540.843 233.534 540.882 232.961C541.502 224.54 540.969 216.079 539.311 207.813C539.194 207.25 539.563 206.706 540.115 206.589C540.678 206.482 541.221 206.842 541.328 207.395C543.025 215.846 543.558 224.491 542.928 233.107C542.908 233.631 542.501 234.02 542.016 234.069Z" fill="#E4E6EB"/>
<path d="M538.652 201.373C538.167 201.422 537.702 201.121 537.556 200.625C534.986 191.708 531.127 183.5 526.094 176.235C525.764 175.768 525.88 175.118 526.356 174.797C526.821 174.467 527.471 174.583 527.791 175.059C532.96 182.51 536.907 190.922 539.544 200.052C539.699 200.606 539.389 201.179 538.836 201.334C538.778 201.354 538.72 201.373 538.652 201.373Z" fill="#E4E6EB"/>
<path d="M289.629 125.642C289.591 125.642 289.542 125.642 289.503 125.632C288.941 125.564 288.533 125.039 288.611 124.476C289.338 118.696 291.045 113.189 293.693 108.089C293.954 107.584 294.575 107.38 295.089 107.652C295.593 107.915 295.797 108.536 295.525 109.051C292.994 113.927 291.355 119.202 290.657 124.738C290.589 125.263 290.143 125.642 289.629 125.642Z" fill="#E4E6EB"/>
<path d="M294.287 153.093C293.909 153.093 293.541 152.889 293.366 152.529C290.36 146.565 288.595 139.824 288.275 133.034C288.246 132.461 288.692 131.975 289.254 131.946C289.836 131.888 290.311 132.364 290.34 132.927C290.651 139.426 292.338 145.885 295.209 151.587C295.47 152.102 295.257 152.723 294.753 152.976C294.607 153.054 294.442 153.093 294.287 153.093Z" fill="#E4E6EB"/>
<path d="M309.715 170.973C309.511 170.973 309.298 170.915 309.114 170.779C304.75 167.68 300.948 163.96 297.797 159.705C297.457 159.249 297.554 158.598 298.01 158.258C298.466 157.918 299.115 158.015 299.455 158.472C302.481 162.551 306.127 166.126 310.307 169.088C310.772 169.419 310.879 170.069 310.549 170.536C310.355 170.817 310.035 170.973 309.715 170.973Z" fill="#E4E6EB"/>
<path d="M334.462 179.873C334.443 179.873 334.414 179.873 334.394 179.873C328.188 179.455 322.136 177.853 316.405 175.094C315.891 174.851 315.678 174.229 315.92 173.715C316.172 173.2 316.783 172.986 317.297 173.229C322.786 175.871 328.585 177.415 334.52 177.814C335.092 177.853 335.519 178.348 335.48 178.911C335.461 179.455 335.005 179.873 334.462 179.873Z" fill="#E4E6EB"/>
<path d="M246.687 44.6427C246.619 44.6427 246.561 44.633 246.493 44.6232C235.971 42.632 225.12 41.9715 214.239 42.6708C213.667 42.6903 213.182 42.2726 213.143 41.6995C213.104 41.1264 213.541 40.631 214.113 40.6019C225.168 39.8928 236.194 40.563 246.881 42.5931C247.443 42.7 247.812 43.2439 247.705 43.8073C247.608 44.3027 247.172 44.6427 246.687 44.6427Z" fill="#E4E6EB"/>
<path d="M176.493 50.6841C176.076 50.6841 175.679 50.4218 175.524 50.0041C175.33 49.4699 175.601 48.8677 176.134 48.6734C185.793 45.0988 195.869 42.6413 206.09 41.3591C206.653 41.2911 207.177 41.6894 207.244 42.2625C207.312 42.8259 206.915 43.3504 206.343 43.4184C196.276 44.6811 186.356 47.0998 176.852 50.6161C176.726 50.6646 176.61 50.6841 176.493 50.6841Z" fill="#E4E6EB"/>
<path d="M126.097 83.6423C125.835 83.6423 125.583 83.5452 125.379 83.3509C124.972 82.9527 124.952 82.3019 125.35 81.8842C130.878 76.1338 136.958 70.84 143.426 66.1483C143.892 65.8084 144.532 65.9152 144.871 66.3815C145.211 66.8477 145.104 67.4888 144.639 67.8288C138.267 72.4524 132.274 77.6685 126.834 83.3218C126.64 83.5355 126.368 83.6423 126.097 83.6423Z" fill="#E4E6EB"/>
<path d="M104.676 113.559C104.521 113.559 104.356 113.52 104.201 113.443C103.697 113.181 103.493 112.559 103.755 112.054C108.08 103.593 113.453 95.5408 119.727 88.1294C120.096 87.6923 120.745 87.6437 121.182 88.0128C121.618 88.382 121.676 89.0328 121.298 89.4699C115.13 96.7647 109.845 104.681 105.598 112.996C105.413 113.355 105.055 113.559 104.676 113.559Z" fill="#E4E6EB"/>
<path d="M527.777 63.819C529.348 63.819 530.725 64.4115 531.636 65.48C532.577 66.5776 532.955 68.0832 532.693 69.7054L510.932 207.744C510.369 211.289 506.927 214.281 503.397 214.281H342.863C341.292 214.281 339.915 213.689 339.003 212.62C338.062 211.522 337.684 210.017 337.946 208.395L359.707 70.3562C360.27 66.8107 363.713 63.819 367.242 63.819H527.777ZM527.777 61.75H367.233C362.665 61.75 358.379 65.4606 357.661 70.0356L335.9 208.064C335.182 212.64 338.295 216.35 342.863 216.35H503.407C507.974 216.35 512.26 212.64 512.978 208.064L534.74 70.0259C535.467 65.4508 532.344 61.75 527.777 61.75Z" fill="#E4E6EB"/>
<path d="M533.401 78.5349H356.312L357.651 70.0356C358.368 65.4606 362.655 61.75 367.222 61.75H527.766C532.334 61.75 535.447 65.4606 534.729 70.0356L533.401 78.5349Z" fill="#656D85"/>
<path d="M372.67 70.1443C372.408 71.7858 370.876 73.1166 369.227 73.1166C367.588 73.1166 366.464 71.7858 366.725 70.1443C366.987 68.5027 368.519 67.1719 370.168 67.1719C371.807 67.1622 372.922 68.5027 372.67 70.1443Z" fill="white"/>
<path d="M385.95 72.1797C387.252 70.9745 387.473 69.0937 386.445 67.9788C385.416 66.8638 383.526 66.9369 382.225 68.1421C380.923 69.3472 380.701 71.2281 381.73 72.343C382.759 73.458 384.648 73.3849 385.95 72.1797Z" fill="white"/>
<path d="M388.003 143.188H390.126C392.405 143.188 393.967 145.043 393.608 147.325L388.167 181.857H377.781L383.222 147.325C383.58 145.043 385.724 143.188 388.003 143.188Z" fill="#B2E151"/>
<path d="M412.179 131.086H414.302C416.581 131.086 418.143 132.941 417.784 135.224L410.433 181.858H400.047L407.398 135.224C407.747 132.941 409.89 131.086 412.179 131.086Z" fill="#B2E151"/>
<path d="M436.82 116.008H438.944C441.223 116.008 442.784 117.863 442.425 120.146L432.699 181.856H422.312L432.039 120.146C432.388 117.863 434.531 116.008 436.82 116.008Z" fill="#B2E151"/>
<path d="M460.154 109.211H462.278C464.557 109.211 466.118 111.066 465.76 113.349L454.956 181.858H444.57L455.373 113.349C455.723 111.066 457.866 109.211 460.154 109.211Z" fill="#B2E151"/>
<path d="M483.923 99.6523H486.047C488.326 99.6523 489.887 101.508 489.528 103.79L477.222 181.858H466.836L479.142 103.79C479.501 101.508 481.644 99.6523 483.923 99.6523Z" fill="#B2E151"/>
<path d="M374.797 194.115C385.115 194.115 395.434 194.115 405.752 194.115C408.409 194.115 408.419 189.977 405.752 189.977C395.434 189.977 385.115 189.977 374.797 189.977C372.13 189.977 372.13 194.115 374.797 194.115Z" fill="#E4E6EB"/>
<path d="M419.594 194.115C438.727 194.115 457.861 194.115 477.004 194.115C479.661 194.115 479.671 189.977 477.004 189.977C457.87 189.977 438.737 189.977 419.594 189.977C416.927 189.977 416.927 194.115 419.594 194.115Z" fill="#E4E6EB"/>
<path d="M225.552 203.031C228.188 203.031 230.324 200.891 230.324 198.252C230.324 195.612 228.188 193.473 225.552 193.473C222.917 193.473 220.781 195.612 220.781 198.252C220.781 200.891 222.917 203.031 225.552 203.031Z" fill="#F5E3D9"/>
</g>
<defs>
<clipPath id="clip0_697_4755">
<rect width="550" height="396" fill="white"/>
</clipPath>
</defs>
</svg>
