<svg width="20" height="21" viewBox="0 0 20 21" fill="none" xmlns="http://www.w3.org/2000/svg">
<g clip-path="url(#clip0_348_7295)">
<path d="M14.1641 1.83008H5.83073C4.91025 1.83008 4.16406 2.57627 4.16406 3.49674V16.8301C4.16406 17.7506 4.91025 18.4967 5.83073 18.4967H14.1641C15.0845 18.4967 15.8307 17.7506 15.8307 16.8301V3.49674C15.8307 2.57627 15.0845 1.83008 14.1641 1.83008Z" stroke="white" stroke-width="2" stroke-linecap="round" stroke-linejoin="round"/>
<path d="M10 15.1641H10.0109" stroke="white" stroke-width="2" stroke-linecap="round" stroke-linejoin="round"/>
</g>
<defs>
<clipPath id="clip0_348_7295">
<rect width="20" height="20" fill="white" transform="translate(0 0.164062)"/>
</clipPath>
</defs>
</svg>
